{ "height":22,
 "infinite":false,
 "layers":[
        {
         "data":[0, 0, 0, 0, 0, 0, 0, 0, 0, 0, 0, 0, 0, 0, 0, 0, 0, 0, 0, 0, 0, 0, 0, 0, 0, 0, 0, 0, 0, 0, 0, 0, 0, 0, 0, 0, 0, 0, 0, 0, 0, 0, 0, 0, 0, 0, 0, 0, 0, 0, 0, 0, 0, 0, 0, 0, 0, 0, 0, 0, 0, 0, 0, 0, 0, 0, 0, 0, 0, 0, 0, 0, 0, 0, 0, 0, 0, 0, 0, 0, 0, 0, 0, 0, 0, 0, 0, 0, 0, 0, 0, 0, 0, 0, 0, 0, 0, 0, 0, 0, 0, 0, 0, 0, 0, 0, 0, 0, 0, 0, 0, 0, 0, 0, 0, 0, 0, 0, 0, 0, 0, 0, 0, 0, 0, 0, 0, 0, 0, 0, 0, 0, 0, 0, 0, 0, 0, 0, 0, 0, 0, 0, 0, 0, 0, 0, 0, 0, 0, 0, 0, 0, 0, 0, 0, 0, 0, 0, 0, 0, 0, 0, 0, 0, 0, 0, 0, 0, 0, 0, 0, 0, 0, 0, 0, 0, 0, 0, 0, 0, 0, 0, 0, 0, 0, 0, 0, 0, 0, 0, 0, 0, 0, 0, 0, 0, 0, 0, 0, 0, 0, 0, 0, 0, 0, 0, 0, 0, 0, 0, 0, 0, 0, 0, 0, 0, 0, 0, 0, 0, 0, 0, 0, 0, 0, 0, 0, 0, 0, 0, 0, 0, 0, 0, 0, 0, 0, 0, 0, 0, 0, 0, 0, 0, 0, 0, 0, 0, 0, 0, 0, 0, 0, 0, 0, 0, 0, 0, 0, 0, 0, 0, 0, 0, 0, 0, 0, 0, 0, 0, 0, 0, 0, 0, 0, 0, 0, 0, 0, 0, 0, 0, 0, 0, 0, 0, 0, 0, 0, 0, 0, 0, 0, 0, 0, 0, 0, 0, 0, 0, 0, 0, 0, 0, 0, 0, 0, 0, 0, 0, 0, 0, 0, 0, 0, 0, 0, 0, 0, 0, 0, 0, 0, 0, 0, 0, 0, 0, 0, 0, 0, 0, 0, 0, 0, 0, 0, 0, 0, 0, 0, 0, 0, 0, 0, 0, 0, 0, 0, 0, 0, 0, 0, 0, 0, 0, 0, 0, 0, 0, 0, 0, 0, 0, 0, 0, 0, 0, 0, 0, 0, 0, 0, 0, 0, 0, 0, 0, 0, 0, 0, 0, 0, 0, 0, 0, 0, 0, 0, 0, 0, 0, 0, 0, 0, 0, 35, 112, 112, 0, 0, 0, 0, 0, 0, 0, 0, 0, 0, 112, 112, 9, 0, 0, 0, 0, 0, 0, 0, 0, 0, 0, 0, 0, 0, 0, 0, 0, 0, 0, 35, 22, 165, 165, 112, 150, 150, 150, 150, 150, 150, 150, 150, 112, 165, 165, 164, 9, 0, 0, 0, 0, 0, 0, 0, 0, 0, 0, 0, 0, 0, 0, 0, 0, 35, 22, 165, 165, 165, 165, 8, 8, 8, 8, 8, 8, 8, 8, 165, 165, 165, 165, 164, 9, 0, 0, 0, 0, 0, 0, 112, 112, 112, 112, 112, 112, 112, 112, 112, 22, 165, 165, 165, 165, 165, 165, 165, 165, 165, 165, 165, 165, 165, 165, 165, 165, 165, 165, 164, 112, 112, 112, 112, 112, 112, 165, 165, 165, 165, 165, 165, 165, 165, 165, 165, 165, 165, 165, 165, 165, 165, 165, 165, 165, 165, 165, 165, 165, 165, 165, 165, 165, 165, 165, 165, 165, 165, 165, 165, 165, 165, 165, 165, 165, 165, 165, 165, 165, 165, 165, 165, 165, 165, 165, 165, 165, 165, 165, 165, 165, 165, 165, 165, 165, 165, 165, 165, 165, 165, 165, 165, 165, 165, 165, 165, 165, 165, 165, 165, 165, 165, 165, 165, 165, 165, 165, 165, 165, 165, 165, 165, 165, 165, 165, 165, 165, 165, 165, 165, 165, 165, 165, 165, 165, 165, 165, 165, 165, 165, 165, 165, 165, 165, 165, 165, 165, 165, 165, 165, 165, 165, 165, 165, 165, 165, 165, 165, 165, 165, 165, 165, 165, 165, 165, 165, 165, 165, 165, 165, 165, 165, 165, 165, 165, 165, 165, 165, 165, 165, 165, 165, 165, 165, 165, 165, 165, 165, 165, 165, 165, 165, 165, 165, 165, 165, 165, 165, 165, 165, 165, 165, 165, 165, 165, 165, 165, 165, 165, 165, 165, 165, 165, 165, 165, 165, 165, 165, 165, 165, 165, 165, 165, 165, 165, 165, 165, 165, 165, 165, 165, 165, 165, 165, 165, 165, 165, 165, 165, 165, 165, 165, 165, 165, 165, 165, 165, 165, 165, 165, 165, 165, 165, 165, 165, 165, 165, 165, 165, 165, 165, 165, 165, 165, 165, 165, 165, 165, 165, 165, 165, 165, 165, 165, 165, 165, 165, 165, 165, 165, 165],
         "height":22,
         "name":"L1",
         "opacity":1,
         "type":"tilelayer",
         "visible":true,
         "width":35,
         "x":0,
         "y":0
        }, 
        {
         "draworder":"topdown",
         "name":"boxes",
         "objects":[
                {
                 "height":70,
                 "id":1,
                 "name":"b1",
                 "properties":
                    {
                     "type":"normal"
                    },
                 "propertytypes":
                    {
                     "type":"string"
                    },
                 "rotation":0,
                 "type":"box",
                 "visible":true,
                 "width":70,
                 "x":270,
                 "y":894.666666666667
                }],
         "opacity":1,
         "type":"objectgroup",
         "visible":true,
         "x":0,
         "y":0
        }, 
        {
         "draworder":"topdown",
         "name":"interactables",
         "objects":[
                {
                 "id":5,
                 "properties":
                    {
                     "subtype":"destination",
                     "type":"flag"
                    },
                 "propertytypes":
                    {
                     "subtype":"string",
                     "type":"string"
                    },
                 "template":"..\/tiled_data\/destination.tx",
                 "x":2310,
                 "y":910
                }, 
                {
                 "height":70,
                 "id":8,
                 "name":"blue laser",
                 "properties":
                    {
                     "laser_color":"blue",
                     "orientation":0,
                     "type":"laser_beam"
                    },
                 "propertytypes":
                    {
                     "laser_color":"string",
                     "orientation":"int",
                     "type":"string"
                    },
                 "rotation":0,
                 "type":"event",
                 "visible":true,
                 "width":560,
                 "x":1050,
                 "y":770
                }, 
                {
                 "height":70,
                 "id":10,
                 "name":"blue switch",
                 "properties":
                    {
                     "active":false,
                     "laser_color":"blue",
                     "type":"laser_switch"
                    },
                 "propertytypes":
                    {
                     "active":"bool",
                     "laser_color":"string",
                     "type":"string"
                    },
                 "rotation":0,
                 "type":"event",
                 "visible":true,
                 "width":70,
                 "x":490,
                 "y":910
                }, 
                {
                 "id":11,
                 "properties":
                    {
                     "direction":"right",
                     "type":"laser_source"
                    },
                 "propertytypes":
                    {
                     "direction":"string",
                     "type":"string"
                    },
                 "template":"..\/tiled_data\/laser_source.tx",
                 "x":980,
                 "y":770
                }, 
                {
                 "height":70,
                 "id":12,
                 "name":"",
                 "properties":
                    {
                     "direction":"left",
                     "type":"laser_source"
                    },
                 "propertytypes":
                    {
                     "direction":"string",
                     "type":"string"
                    },
                 "rotation":0,
                 "type":"event",
                 "visible":true,
                 "width":70,
                 "x":1610,
                 "y":770
                }],
         "opacity":1,
         "type":"objectgroup",
         "visible":true,
         "x":0,
         "y":0
        }, 
        {
         "draworder":"topdown",
         "name":"killzones",
         "objects":[
                {
                 "height":105,
                 "id":7,
                 "name":"lava",
                 "properties":
                    {
                     "killtype":"fire"
                    },
                 "propertytypes":
                    {
                     "killtype":"string"
                    },
                 "rotation":0,
                 "type":"killer",
                 "visible":true,
                 "width":560,
                 "x":1050,
                 "y":875
                }],
         "opacity":1,
         "type":"objectgroup",
         "visible":true,
         "x":0,
         "y":0
        }],
 "nextobjectid":13,
 "orientation":"orthogonal",
 "properties":
    {
     "boxesRequiredForWin":1,
     "maxBoxesToBeLost":0,
     "next_map":"map_4",
     "spawn_x":70,
     "spawn_y":850,
     "text":"Friggin' LAZORS!!!\nPull the switch.",
     "text_x":70,
     "text_y":1050
    },
 "propertytypes":
    {
     "boxesRequiredForWin":"int",
     "maxBoxesToBeLost":"int",
     "next_map":"string",
     "spawn_x":"int",
     "spawn_y":"int",
     "text":"string",
     "text_x":"int",
     "text_y":"int"
    },
 "renderorder":"right-down",
 "tiledversion":"2017.11.22",
 "tileheight":70,
 "tilesets":[
        {
         "columns":13,
         "firstgid":1,
         "grid":
            {
             "height":35,
             "orientation":"orthogonal",
             "width":35
            },
         "image":"sprs_base.png",
         "imageheight":934,
         "imagewidth":934,
         "margin":0,
         "name":"Kenney_base",
         "spacing":2,
         "tilecount":169,
         "tileheight":70,
         "tiles":
            {
             "10":
                {
                 "objectgroup":
                    {
                     "draworder":"index",
                     "name":"",
                     "objects":[
                            {
                             "height":0,
                             "id":1,
                             "name":"",
                             "polygon":[
                                    {
                                     "x":0,
                                     "y":0
                                    }, 
                                    {
                                     "x":0,
                                     "y":70
                                    }, 
                                    {
                                     "x":70,
                                     "y":70
                                    }],
                             "rotation":0,
                             "type":"coll",
                             "visible":true,
                             "width":0,
                             "x":0,
                             "y":0
                            }],
                     "opacity":1,
                     "type":"objectgroup",
                     "visible":true,
                     "x":0,
                     "y":0
                    }
                },
             "102":
                {
                 "objectgroup":
                    {
                     "draworder":"index",
                     "name":"",
                     "objects":[
                            {
                             "height":0,
                             "id":1,
                             "name":"",
                             "polygon":[
                                    {
                                     "x":0,
                                     "y":0
                                    }, 
                                    {
                                     "x":0,
                                     "y":70
                                    }, 
                                    {
                                     "x":70,
                                     "y":70
                                    }],
                             "rotation":0,
                             "type":"coll",
                             "visible":true,
                             "width":0,
                             "x":0,
                             "y":0
                            }],
                     "opacity":1,
                     "type":"objectgroup",
                     "visible":true,
                     "x":0,
                     "y":0
                    }
                },
             "111":
                {
                 "objectgroup":
                    {
                     "draworder":"index",
                     "name":"",
                     "objects":[
                            {
                             "height":70,
                             "id":1,
                             "name":"",
                             "rotation":0,
                             "type":"coll",
                             "visible":true,
                             "width":70,
                             "x":0,
                             "y":0
                            }],
                     "opacity":1,
                     "type":"objectgroup",
                     "visible":true,
                     "x":0,
                     "y":0
                    }
                },
             "113":
                {
                 "objectgroup":
                    {
                     "draworder":"index",
                     "name":"",
                     "objects":[
                            {
                             "height":0,
                             "id":1,
                             "name":"",
                             "polygon":[
                                    {
                                     "x":0,
                                     "y":0
                                    }, 
                                    {
                                     "x":70,
                                     "y":0
                                    }, 
                                    {
                                     "x":70,
                                     "y":-70
                                    }],
                             "rotation":0,
                             "type":"coll",
                             "visible":true,
                             "width":0,
                             "x":0,
                             "y":70
                            }],
                     "opacity":1,
                     "type":"objectgroup",
                     "visible":true,
                     "x":0,
                     "y":0
                    }
                },
             "163":
                {
                 "objectgroup":
                    {
                     "draworder":"index",
                     "name":"",
                     "objects":[
                            {
                             "height":70,
                             "id":1,
                             "name":"",
                             "rotation":0,
                             "type":"coll",
                             "visible":true,
                             "width":70,
                             "x":0,
                             "y":0
                            }],
                     "opacity":1,
                     "type":"objectgroup",
                     "visible":true,
                     "x":0,
                     "y":0
                    }
                },
             "164":
                {
                 "objectgroup":
                    {
                     "draworder":"index",
                     "name":"",
                     "objects":[
                            {
                             "height":70,
                             "id":1,
                             "name":"",
                             "rotation":0,
                             "type":"coll",
                             "visible":true,
                             "width":70,
                             "x":0,
                             "y":0
                            }, 
                            {
                             "height":70,
                             "id":2,
                             "name":"",
                             "rotation":0,
                             "type":"coll",
                             "visible":true,
                             "width":70,
                             "x":0,
                             "y":0
                            }],
                     "opacity":1,
                     "type":"objectgroup",
                     "visible":true,
                     "x":0,
                     "y":0
                    }
                },
             "21":
                {
                 "objectgroup":
                    {
                     "draworder":"index",
                     "name":"",
                     "objects":[
                            {
                             "height":70,
                             "id":1,
                             "name":"",
                             "rotation":0,
                             "type":"coll",
                             "visible":true,
                             "width":70,
                             "x":0,
                             "y":0
                            }],
                     "opacity":1,
                     "type":"objectgroup",
                     "visible":true,
                     "x":0,
                     "y":0
                    }
                },
             "34":
                {
                 "objectgroup":
                    {
                     "draworder":"index",
                     "name":"",
                     "objects":[
                            {
                             "height":0,
                             "id":1,
                             "name":"",
                             "polygon":[
                                    {
                                     "x":0,
                                     "y":0
                                    }, 
                                    {
                                     "x":70,
                                     "y":0
                                    }, 
                                    {
                                     "x":70,
                                     "y":-70
                                    }],
                             "rotation":0,
                             "type":"coll",
                             "visible":true,
                             "width":0,
                             "x":0,
                             "y":70
                            }],
                     "opacity":1,
                     "type":"objectgroup",
                     "visible":true,
                     "x":0,
                     "y":0
                    }
                },
             "36":
                {
                 "objectgroup":
                    {
                     "draworder":"index",
                     "name":"",
                     "objects":[
                            {
                             "height":0,
                             "id":1,
                             "name":"",
                             "polygon":[
                                    {
                                     "x":0,
                                     "y":0
                                    }, 
                                    {
                                     "x":70,
                                     "y":0
                                    }, 
                                    {
                                     "x":70,
                                     "y":-70
                                    }],
                             "rotation":0,
                             "type":"coll",
                             "visible":true,
                             "width":0,
                             "x":0,
                             "y":70
                            }],
                     "opacity":1,
                     "type":"objectgroup",
                     "visible":true,
                     "x":0,
                     "y":0
                    }
                },
             "37":
                {
                 "objectgroup":
                    {
                     "draworder":"index",
                     "name":"",
                     "objects":[
                            {
                             "height":70,
                             "id":1,
                             "name":"",
                             "rotation":0,
                             "type":"coll",
                             "visible":true,
                             "width":70,
                             "x":0,
                             "y":0
                            }],
                     "opacity":1,
                     "type":"objectgroup",
                     "visible":true,
                     "x":0,
                     "y":0
                    }
                },
             "59":
                {
                 "objectgroup":
                    {
                     "draworder":"index",
                     "name":"",
                     "objects":[
                            {
                             "height":70,
                             "id":1,
                             "name":"",
                             "rotation":0,
                             "type":"coll",
                             "visible":true,
                             "width":70,
                             "x":0,
                             "y":0
                            }],
                     "opacity":1,
                     "type":"objectgroup",
                     "visible":true,
                     "x":0,
                     "y":0
                    }
                },
             "72":
                {
                 "objectgroup":
                    {
                     "draworder":"index",
                     "name":"",
                     "objects":[
                            {
                             "height":70,
                             "id":1,
                             "name":"",
                             "rotation":0,
                             "type":"coll",
                             "visible":true,
                             "width":70,
                             "x":0,
                             "y":0
                            }],
                     "opacity":1,
                     "type":"objectgroup",
                     "visible":true,
                     "x":0,
                     "y":0
                    }
                },
             "8":
                {
                 "objectgroup":
                    {
                     "draworder":"index",
                     "name":"",
                     "objects":[
                            {
                             "height":0,
                             "id":1,
                             "name":"",
                             "polygon":[
                                    {
                                     "x":0,
                                     "y":0
                                    }, 
                                    {
                                     "x":0,
                                     "y":70
                                    }, 
                                    {
                                     "x":70,
                                     "y":70
                                    }],
                             "rotation":0,
                             "type":"coll",
                             "visible":true,
                             "width":0,
                             "x":0,
                             "y":0
                            }],
                     "opacity":1,
                     "type":"objectgroup",
                     "visible":true,
                     "x":0,
                     "y":0
                    }
                }
            },
         "tilewidth":70
        }],
 "tilewidth":70,
 "type":"map",
 "version":1,
 "width":35
}